PAV
QL PASMJUIHIFATVIHINI I
W WW MI  M
   19013659  I   W    5
  V V W POLJAKOV



VLADYMIR

  W11 811580    33008140257





U EESW SET
 13 3  1 1156 14    PM
   15613
0  1
P<ESTP0LJAKOV<<VLADIMIR<<<<<<<<<<<<< I I K11<V
KC00805946E5T8008149M191103538008140961  CU