W 1MCDMI113551151

131159 31711 WOIBCIIOH















W VKPAIIHA QJ UKRAINE V1
131 W KWSMM   ESE 19 VI  IV V
11 74
2ACHOFT HPIJRWMEVSHVHEMS
ASSPORT COHOFYWSOLOHUB

11W 9911 NEWS
DPIWYURII

1DWW5FVEO1 1113119151111

YKPAIHNUKRAINE
14113 NEWLWGNMW D519 011111111 HEVCOKBMW 11W WSW 112
I 08 LJEFVJUN 90 3303110011
35 8 CVEYU 551 M15149 11199111191411 P7599 D1 MM
HIM MKMIBIUKR
11W 510314110512 171155112

M 0 111411110311141511114116110

1 13 TMCXNOV 12 81126

1 DAYS MKIHMENHH WW 11111 5913 01911111111 HVAIIMC 1192A FIBIWKE WONGFS 31911311112
11 13 TIMUNOV 22








P<UKRSOLOHUB<<YURII<<<<<<<<<<<<<<<<<<<<<<<<<
EP511975<1UKR9006083M22111343303110011<<<<34