HMTIIIH ILUI IPFJIF

UAWW M KKM1



SIA  HI1HIW  1





0

  434506




W WW

9
MHMII SHIIKHW

VGTIHOB

USTINOV

MI CWIWIMMIH

ANAPEI IMKTOPOBUHI
ANDREI

NWWIIG MIMMM
MGM WMIW FEMINHON
M1AIWNI DIIG 04 WHIV   WW W

I0 05  ION

0M M MICIU DUMINIAI M 51 01W

HIM L KVHSHWEB 1 USSR

AMI WI BIKE M IIW



09M WU WMAW A H

UJOJOI I OIC 78039 7
M  W W DW GI  0N RJQW  HW M1 NONE E 5 WWW
WIM

04332021

M

P<IUSUSTINOV<<ANDREI<<<<<<<<<<<<<<<<<<<<<<<<
7H360679RUSM051OZHZ105046<<<<<<<<<<<<<<08